%YAML 1.1
%TAG !u! tag:unity3d.com,2011:
--- !u!114 &11400000
MonoBehaviour:
  m_ObjectHideFlags: 0
  m_CorrespondingSourceObject: {fileID: 0}
  m_PrefabInstance: {fileID: 0}
  m_PrefabAsset: {fileID: 0}
  m_GameObject: {fileID: 0}
  m_Enabled: 1
  m_EditorHideFlags: 0
  m_Script: {fileID: 11500000, guid: 95e66c6366d904e98bc83428217d4fd7, type: 3}
  m_Name: ejercicio 2
  m_EditorClassIdentifier: 
  _data:
    _json: '{"graph":{"variables":{"Kind":"Flow","collection":{"$content":[],"$version":"A"},"$version":"A"},"controlInputDefinitions":[],"controlOutputDefinitions":[],"valueInputDefinitions":[],"valueOutputDefinitions":[],"title":null,"summary":null,"pan":{"x":240.7073,"y":-16.0643},"zoom":0.7420001,"elements":[{"coroutine":false,"defaultValues":{},"position":{"x":-246.0,"y":-287.0},"guid":"236ff426-76ab-4b23-972d-121c05e68ec5","$version":"A","$type":"Unity.VisualScripting.Update","$id":"9"},{"defaultValues":{},"position":{"x":150.0,"y":-50.0},"guid":"c33369d2-c2f9-4c2d-9f60-d270936687be","$version":"A","$type":"Unity.VisualScripting.GenericMultiply","$id":"11"},{"defaultValues":{"b":{"$content":1.0,"$type":"System.Single"}},"position":{"x":-67.0,"y":114.0},"guid":"39c0c8a9-b2b7-4c38-bcab-1b3cf0a2df3b","$version":"A","$type":"Unity.VisualScripting.ScalarMultiply","$id":"13"},{"member":{"name":"deltaTime","parameterTypes":null,"targetType":"UnityEngine.Time","targetTypeName":"UnityEngine.Time","$version":"A"},"defaultValues":{},"position":{"x":-273.0,"y":191.0},"guid":"72c487b3-8c63-4970-97c8-774befc6b387","$version":"A","$type":"Unity.VisualScripting.GetMember","$id":"15"},{"chainable":false,"member":{"name":"localScale","parameterTypes":null,"targetType":"UnityEngine.Transform","targetTypeName":"UnityEngine.Transform","$version":"A"},"defaultValues":{"target":null,"input":{"x":0.0,"y":0.0,"z":0.0,"$type":"UnityEngine.Vector3"}},"position":{"x":524.0,"y":-162.0},"guid":"e03b100f-1c6e-4123-9975-77754c540239","$version":"A","$type":"Unity.VisualScripting.SetMember","$id":"18"},{"specifyFallback":false,"kind":"Object","defaultValues":{"name":{"$content":"scalesUnits","$type":"System.String"},"object":null},"position":{"x":-286.0,"y":22.0},"guid":"e5e4aab6-f021-498e-b980-56f461c513fa","$version":"A","$type":"Unity.VisualScripting.GetVariable","$id":"21"},{"member":{"name":"localScale","parameterTypes":null,"targetType":"UnityEngine.Transform","targetTypeName":"UnityEngine.Transform","$version":"A"},"defaultValues":{"target":null},"position":{"x":126.0,"y":131.0},"guid":"cb74ac83-9a29-4be7-b543-5c4833e26386","$version":"A","$type":"Unity.VisualScripting.GetMember","$id":"23"},{"specifyFallback":false,"kind":"Object","defaultValues":{"name":{"$content":"axes","$type":"System.String"},"object":null},"position":{"x":-273.0,"y":-134.0},"guid":"91db7afb-4931-42b5-936c-52b9b9300e04","$version":"A","$type":"Unity.VisualScripting.GetVariable","$id":"26"},{"chainable":false,"parameterNames":["vector","maxLength"],"member":{"name":"ClampMagnitude","parameterTypes":["UnityEngine.Vector3","System.Single"],"targetType":"UnityEngine.Vector3","targetTypeName":"UnityEngine.Vector3","$version":"A"},"defaultValues":{"%vector":{"x":0.0,"y":0.0,"z":0.0,"$type":"UnityEngine.Vector3"},"%maxLength":{"$content":1.0,"$type":"System.Single"}},"position":{"x":-86.0,"y":-213.0},"guid":"7bb69397-7729-4d49-8fb2-d41014ab1b93","$version":"A","$type":"Unity.VisualScripting.InvokeMember","$id":"28"},{"inputCount":2,"defaultValues":{},"position":{"x":386.0,"y":8.0},"guid":"087f315e-ad6e-42e7-9e0e-694a0e58958f","$version":"A","$type":"Unity.VisualScripting.GenericSum","$id":"32"},{"sourceUnit":{"$ref":"9"},"sourceKey":"trigger","destinationUnit":{"$ref":"28"},"destinationKey":"enter","guid":"f1713ffe-95eb-4bff-b6f3-a800d947aa91","$type":"Unity.VisualScripting.ControlConnection"},{"sourceUnit":{"$ref":"28"},"sourceKey":"exit","destinationUnit":{"$ref":"18"},"destinationKey":"assign","guid":"76bf55ae-8de3-4125-9726-648392deff74","$type":"Unity.VisualScripting.ControlConnection"},{"sourceUnit":{"$ref":"13"},"sourceKey":"product","destinationUnit":{"$ref":"11"},"destinationKey":"b","guid":"aec0adb3-921c-4655-ad08-ab4669a0dcb3","$type":"Unity.VisualScripting.ValueConnection"},{"sourceUnit":{"$ref":"11"},"sourceKey":"product","destinationUnit":{"$ref":"32"},"destinationKey":"0","guid":"bd075301-93c8-4884-b875-a7c0e03fb21f","$type":"Unity.VisualScripting.ValueConnection"},{"sourceUnit":{"$ref":"23"},"sourceKey":"value","destinationUnit":{"$ref":"32"},"destinationKey":"1","guid":"d82cf1f9-bab5-4653-b5c0-c3520f3dbb00","$type":"Unity.VisualScripting.ValueConnection"},{"sourceUnit":{"$ref":"26"},"sourceKey":"value","destinationUnit":{"$ref":"28"},"destinationKey":"%vector","guid":"ea6b23c6-88aa-4b88-bf25-e1b80bc67bc5","$type":"Unity.VisualScripting.ValueConnection"},{"sourceUnit":{"$ref":"15"},"sourceKey":"value","destinationUnit":{"$ref":"13"},"destinationKey":"b","guid":"98366580-dbe5-4034-aff5-68ca09983e37","$type":"Unity.VisualScripting.ValueConnection"},{"sourceUnit":{"$ref":"21"},"sourceKey":"value","destinationUnit":{"$ref":"13"},"destinationKey":"a","guid":"b8027cde-f9b6-41be-98af-e928105c5900","$type":"Unity.VisualScripting.ValueConnection"},{"sourceUnit":{"$ref":"28"},"sourceKey":"result","destinationUnit":{"$ref":"11"},"destinationKey":"a","guid":"1ecdf828-e1cc-4f35-a869-6c921c61b401","$type":"Unity.VisualScripting.ValueConnection"},{"sourceUnit":{"$ref":"32"},"sourceKey":"sum","destinationUnit":{"$ref":"18"},"destinationKey":"input","guid":"87b0c574-fe04-430f-a2f9-8e2fcb3c0c88","$type":"Unity.VisualScripting.ValueConnection"}],"$version":"A"}}'
    _objectReferences: []
