%YAML 1.1
%TAG !u! tag:unity3d.com,2011:
--- !u!162 &1
EditorUserSettings:
  m_ObjectHideFlags: 0
  serializedVersion: 4
  m_ConfigSettings:
    RecentlyUsedSceneGuid-0:
      value: 070601005451500c5f085f75437b0d44174e1b782d7876612f2f196be0b26d3b
      flags: 0
    RecentlyUsedSceneGuid-1:
      value: 5a5757560101590a5d0c0e24427b5d44434e4c7a7b7a23677f2b4565b7b5353a
      flags: 0
    RecentlyUsedSceneGuid-2:
      value: 535555055605580d5b5e0827137a59444e161c727f2d72352f714e61b2e36339
      flags: 0
    RecentlyUsedSceneGuid-3:
      value: 02500c075d00580a5a0a0d7041740f44444f1c2b297074327e2b4a6be4e46169
      flags: 0
    RecentlyUsedSceneGuid-4:
      value: 5a0502575c075c5d0b0b0d2343750844174e497c747e2061787d4e62b7b0376c
      flags: 0
    RecentlyUsedSceneGuid-5:
      value: 5452525e06545e0b5c5e0a7244205a44471641727f2a70687a7f4832e1e4666f
      flags: 0
    vcSharedLogLevel:
      value: 0d5e400f0650
      flags: 0
  m_VCAutomaticAdd: 1
  m_VCDebugCom: 0
  m_VCDebugCmd: 0
  m_VCDebugOut: 0
  m_SemanticMergeMode: 2
  m_DesiredImportWorkerCount: 4
  m_StandbyImportWorkerCount: 2
  m_IdleImportWorkerShutdownDelay: 60000
  m_VCShowFailedCheckout: 1
  m_VCOverwriteFailedCheckoutAssets: 1
  m_VCProjectOverlayIcons: 1
  m_VCHierarchyOverlayIcons: 1
  m_VCOtherOverlayIcons: 1
  m_VCAllowAsyncUpdate: 1
  m_ArtifactGarbageCollection: 1
